{
  "runtime": 10.0,
  "shapes": [
    {
      "type": "circle",
      "center": [0.5, 0, 0],
      "radius": 0.5,
      "direction": "CLOCK_WISE",
      "anchor": "LEFT"
    },

    {
      "type": "circle",
      "center": [-0.5, 0, 0],
      "radius": 0.5,
      "direction": "ANTI_CLOCK_WISE",
      "anchor": "RIGHT"
    }
  ]
}